%YAML 1.1
%TAG !u! tag:unity3d.com,2011:
--- !u!29 &1
OcclusionCullingSettings:
  m_ObjectHideFlags: 0
  serializedVersion: 2
  m_OcclusionBakeSettings:
    smallestOccluder: 5
    smallestHole: 0.25
    backfaceThreshold: 100
  m_SceneGUID: 00000000000000000000000000000000
  m_OcclusionCullingData: {fileID: 0}
--- !u!104 &2
RenderSettings:
  m_ObjectHideFlags: 0
  serializedVersion: 9
  m_Fog: 0
  m_FogColor: {r: 0.5, g: 0.5, b: 0.5, a: 1}
  m_FogMode: 3
  m_FogDensity: 0.01
  m_LinearFogStart: 0
  m_LinearFogEnd: 300
  m_AmbientSkyColor: {r: 0.212, g: 0.227, b: 0.259, a: 1}
  m_AmbientEquatorColor: {r: 0.114, g: 0.125, b: 0.133, a: 1}
  m_AmbientGroundColor: {r: 0.047, g: 0.043, b: 0.035, a: 1}
  m_AmbientIntensity: 1
  m_AmbientMode: 0
  m_SubtractiveShadowColor: {r: 0.42, g: 0.478, b: 0.627, a: 1}
  m_SkyboxMaterial: {fileID: 10304, guid: 0000000000000000f000000000000000, type: 0}
  m_HaloStrength: 0.5
  m_FlareStrength: 1
  m_FlareFadeSpeed: 3
  m_HaloTexture: {fileID: 0}
  m_SpotCookie: {fileID: 10001, guid: 0000000000000000e000000000000000, type: 0}
  m_DefaultReflectionMode: 0
  m_DefaultReflectionResolution: 128
  m_ReflectionBounces: 1
  m_ReflectionIntensity: 1
  m_CustomReflection: {fileID: 0}
  m_Sun: {fileID: 705507994}
  m_IndirectSpecularColor: {r: 0, g: 0, b: 0, a: 1}
  m_UseRadianceAmbientProbe: 0
--- !u!157 &3
LightmapSettings:
  m_ObjectHideFlags: 0
  serializedVersion: 12
  m_GIWorkflowMode: 1
  m_GISettings:
    serializedVersion: 2
    m_BounceScale: 1
    m_IndirectOutputScale: 1
    m_AlbedoBoost: 1
    m_EnvironmentLightingMode: 0
    m_EnableBakedLightmaps: 1
    m_EnableRealtimeLightmaps: 0
  m_LightmapEditorSettings:
    serializedVersion: 12
    m_Resolution: 2
    m_BakeResolution: 40
    m_AtlasSize: 1024
    m_AO: 0
    m_AOMaxDistance: 1
    m_CompAOExponent: 1
    m_CompAOExponentDirect: 0
    m_ExtractAmbientOcclusion: 0
    m_Padding: 2
    m_LightmapParameters: {fileID: 0}
    m_LightmapsBakeMode: 1
    m_TextureCompression: 1
    m_FinalGather: 0
    m_FinalGatherFiltering: 1
    m_FinalGatherRayCount: 256
    m_ReflectionCompression: 2
    m_MixedBakeMode: 2
    m_BakeBackend: 1
    m_PVRSampling: 1
    m_PVRDirectSampleCount: 32
    m_PVRSampleCount: 500
    m_PVRBounces: 2
    m_PVREnvironmentSampleCount: 500
    m_PVREnvironmentReferencePointCount: 2048
    m_PVRFilteringMode: 2
    m_PVRDenoiserTypeDirect: 0
    m_PVRDenoiserTypeIndirect: 0
    m_PVRDenoiserTypeAO: 0
    m_PVRFilterTypeDirect: 0
    m_PVRFilterTypeIndirect: 0
    m_PVRFilterTypeAO: 0
    m_PVREnvironmentMIS: 0
    m_PVRCulling: 1
    m_PVRFilteringGaussRadiusDirect: 1
    m_PVRFilteringGaussRadiusIndirect: 5
    m_PVRFilteringGaussRadiusAO: 2
    m_PVRFilteringAtrousPositionSigmaDirect: 0.5
    m_PVRFilteringAtrousPositionSigmaIndirect: 2
    m_PVRFilteringAtrousPositionSigmaAO: 1
    m_ExportTrainingData: 0
    m_TrainingDataDestination: TrainingData
    m_LightProbeSampleCountMultiplier: 4
  m_LightingDataAsset: {fileID: 0}
  m_LightingSettings: {fileID: 4890085278179872738, guid: ea1ad87814b1d5b4d844fe3a1f349b7c, type: 2}
--- !u!196 &4
NavMeshSettings:
  serializedVersion: 2
  m_ObjectHideFlags: 0
  m_BuildSettings:
    serializedVersion: 2
    agentTypeID: 0
    agentRadius: 0.5
    agentHeight: 2
    agentSlope: 45
    agentClimb: 0.4
    ledgeDropHeight: 0
    maxJumpAcrossDistance: 0
    minRegionArea: 2
    manualCellSize: 0
    cellSize: 0.16666667
    manualTileSize: 0
    tileSize: 256
    accuratePlacement: 0
    maxJobWorkers: 0
    preserveTilesOutsideBounds: 0
    debug:
      m_Flags: 0
  m_NavMeshData: {fileID: 0}
--- !u!1001 &87163166
PrefabInstance:
  m_ObjectHideFlags: 0
  serializedVersion: 2
  m_Modification:
    m_TransformParent: {fileID: 0}
    m_Modifications:
    - target: {fileID: 1860949050935862, guid: 35b4129ac994d4e49a7699deb68ac65b, type: 3}
      propertyPath: m_Name
      value: SM_PolygonPrototype_Buildings_Ramp_25_1x1_01P
      objectReference: {fileID: 0}
    - target: {fileID: 4062878138970036, guid: 35b4129ac994d4e49a7699deb68ac65b, type: 3}
      propertyPath: m_RootOrder
      value: 4
      objectReference: {fileID: 0}
    - target: {fileID: 4062878138970036, guid: 35b4129ac994d4e49a7699deb68ac65b, type: 3}
      propertyPath: m_LocalScale.x
      value: 2
      objectReference: {fileID: 0}
    - target: {fileID: 4062878138970036, guid: 35b4129ac994d4e49a7699deb68ac65b, type: 3}
      propertyPath: m_LocalScale.y
      value: 2
      objectReference: {fileID: 0}
    - target: {fileID: 4062878138970036, guid: 35b4129ac994d4e49a7699deb68ac65b, type: 3}
      propertyPath: m_LocalScale.z
      value: 2
      objectReference: {fileID: 0}
    - target: {fileID: 4062878138970036, guid: 35b4129ac994d4e49a7699deb68ac65b, type: 3}
      propertyPath: m_LocalPosition.x
      value: 16.91737
      objectReference: {fileID: 0}
    - target: {fileID: 4062878138970036, guid: 35b4129ac994d4e49a7699deb68ac65b, type: 3}
      propertyPath: m_LocalPosition.y
      value: 2
      objectReference: {fileID: 0}
    - target: {fileID: 4062878138970036, guid: 35b4129ac994d4e49a7699deb68ac65b, type: 3}
      propertyPath: m_LocalPosition.z
      value: 9.843482
      objectReference: {fileID: 0}
    - target: {fileID: 4062878138970036, guid: 35b4129ac994d4e49a7699deb68ac65b, type: 3}
      propertyPath: m_LocalRotation.w
      value: 1
      objectReference: {fileID: 0}
    - target: {fileID: 4062878138970036, guid: 35b4129ac994d4e49a7699deb68ac65b, type: 3}
      propertyPath: m_LocalRotation.x
      value: 0
      objectReference: {fileID: 0}
    - target: {fileID: 4062878138970036, guid: 35b4129ac994d4e49a7699deb68ac65b, type: 3}
      propertyPath: m_LocalRotation.y
      value: -0
      objectReference: {fileID: 0}
    - target: {fileID: 4062878138970036, guid: 35b4129ac994d4e49a7699deb68ac65b, type: 3}
      propertyPath: m_LocalRotation.z
      value: -0
      objectReference: {fileID: 0}
    - target: {fileID: 4062878138970036, guid: 35b4129ac994d4e49a7699deb68ac65b, type: 3}
      propertyPath: m_LocalEulerAnglesHint.x
      value: 0
      objectReference: {fileID: 0}
    - target: {fileID: 4062878138970036, guid: 35b4129ac994d4e49a7699deb68ac65b, type: 3}
      propertyPath: m_LocalEulerAnglesHint.y
      value: 0
      objectReference: {fileID: 0}
    - target: {fileID: 4062878138970036, guid: 35b4129ac994d4e49a7699deb68ac65b, type: 3}
      propertyPath: m_LocalEulerAnglesHint.z
      value: 0
      objectReference: {fileID: 0}
    m_RemovedComponents: []
  m_SourcePrefab: {fileID: 100100000, guid: 35b4129ac994d4e49a7699deb68ac65b, type: 3}
--- !u!1 &705507993
GameObject:
  m_ObjectHideFlags: 0
  m_CorrespondingSourceObject: {fileID: 0}
  m_PrefabInstance: {fileID: 0}
  m_PrefabAsset: {fileID: 0}
  serializedVersion: 6
  m_Component:
  - component: {fileID: 705507995}
  - component: {fileID: 705507994}
  m_Layer: 0
  m_Name: Directional Light
  m_TagString: Untagged
  m_Icon: {fileID: 0}
  m_NavMeshLayer: 0
  m_StaticEditorFlags: 0
  m_IsActive: 1
--- !u!108 &705507994
Light:
  m_ObjectHideFlags: 0
  m_CorrespondingSourceObject: {fileID: 0}
  m_PrefabInstance: {fileID: 0}
  m_PrefabAsset: {fileID: 0}
  m_GameObject: {fileID: 705507993}
  m_Enabled: 1
  serializedVersion: 10
  m_Type: 1
  m_Shape: 0
  m_Color: {r: 1, g: 0.95686275, b: 0.8392157, a: 1}
  m_Intensity: 1
  m_Range: 10
  m_SpotAngle: 30
  m_InnerSpotAngle: 21.80208
  m_CookieSize: 10
  m_Shadows:
    m_Type: 2
    m_Resolution: -1
    m_CustomResolution: -1
    m_Strength: 1
    m_Bias: 0.05
    m_NormalBias: 0.4
    m_NearPlane: 0.2
    m_CullingMatrixOverride:
      e00: 1
      e01: 0
      e02: 0
      e03: 0
      e10: 0
      e11: 1
      e12: 0
      e13: 0
      e20: 0
      e21: 0
      e22: 1
      e23: 0
      e30: 0
      e31: 0
      e32: 0
      e33: 1
    m_UseCullingMatrixOverride: 0
  m_Cookie: {fileID: 0}
  m_DrawHalo: 0
  m_Flare: {fileID: 0}
  m_RenderMode: 0
  m_CullingMask:
    serializedVersion: 2
    m_Bits: 4294967295
  m_RenderingLayerMask: 1
  m_Lightmapping: 1
  m_LightShadowCasterMode: 0
  m_AreaSize: {x: 1, y: 1}
  m_BounceIntensity: 1
  m_ColorTemperature: 6570
  m_UseColorTemperature: 0
  m_BoundingSphereOverride: {x: 0, y: 0, z: 0, w: 0}
  m_UseBoundingSphereOverride: 0
  m_ShadowRadius: 0
  m_ShadowAngle: 0
--- !u!4 &705507995
Transform:
  m_ObjectHideFlags: 0
  m_CorrespondingSourceObject: {fileID: 0}
  m_PrefabInstance: {fileID: 0}
  m_PrefabAsset: {fileID: 0}
  m_GameObject: {fileID: 705507993}
  m_LocalRotation: {x: 0.8208776, y: -0.25617716, z: -0.03688723, w: 0.50908995}
  m_LocalPosition: {x: 0, y: 3, z: 5.28}
  m_LocalScale: {x: 1, y: 1, z: 1}
  m_Children: []
  m_Father: {fileID: 0}
  m_RootOrder: 7
  m_LocalEulerAnglesHint: {x: 54.776, y: -146.136, z: -127.41}
--- !u!1001 &889408500
PrefabInstance:
  m_ObjectHideFlags: 0
  serializedVersion: 2
  m_Modification:
    m_TransformParent: {fileID: 0}
    m_Modifications:
    - target: {fileID: 100000, guid: bef96b6e1cd37444fa6937ae99361014, type: 3}
      propertyPath: m_Name
      value: SM_Buildings_Floor_1x1_01
      objectReference: {fileID: 0}
    - target: {fileID: 400000, guid: bef96b6e1cd37444fa6937ae99361014, type: 3}
      propertyPath: m_RootOrder
      value: 6
      objectReference: {fileID: 0}
    - target: {fileID: 400000, guid: bef96b6e1cd37444fa6937ae99361014, type: 3}
      propertyPath: m_LocalScale.x
      value: 20.00001
      objectReference: {fileID: 0}
    - target: {fileID: 400000, guid: bef96b6e1cd37444fa6937ae99361014, type: 3}
      propertyPath: m_LocalScale.z
      value: 14.886228
      objectReference: {fileID: 0}
    - target: {fileID: 400000, guid: bef96b6e1cd37444fa6937ae99361014, type: 3}
      propertyPath: m_LocalPosition.x
      value: 0
      objectReference: {fileID: 0}
    - target: {fileID: 400000, guid: bef96b6e1cd37444fa6937ae99361014, type: 3}
      propertyPath: m_LocalPosition.y
      value: 0
      objectReference: {fileID: 0}
    - target: {fileID: 400000, guid: bef96b6e1cd37444fa6937ae99361014, type: 3}
      propertyPath: m_LocalPosition.z
      value: 0
      objectReference: {fileID: 0}
    - target: {fileID: 400000, guid: bef96b6e1cd37444fa6937ae99361014, type: 3}
      propertyPath: m_LocalRotation.w
      value: 1
      objectReference: {fileID: 0}
    - target: {fileID: 400000, guid: bef96b6e1cd37444fa6937ae99361014, type: 3}
      propertyPath: m_LocalRotation.x
      value: 0
      objectReference: {fileID: 0}
    - target: {fileID: 400000, guid: bef96b6e1cd37444fa6937ae99361014, type: 3}
      propertyPath: m_LocalRotation.y
      value: 0
      objectReference: {fileID: 0}
    - target: {fileID: 400000, guid: bef96b6e1cd37444fa6937ae99361014, type: 3}
      propertyPath: m_LocalRotation.z
      value: 0
      objectReference: {fileID: 0}
    - target: {fileID: 400000, guid: bef96b6e1cd37444fa6937ae99361014, type: 3}
      propertyPath: m_LocalEulerAnglesHint.x
      value: 0
      objectReference: {fileID: 0}
    - target: {fileID: 400000, guid: bef96b6e1cd37444fa6937ae99361014, type: 3}
      propertyPath: m_LocalEulerAnglesHint.y
      value: 0
      objectReference: {fileID: 0}
    - target: {fileID: 400000, guid: bef96b6e1cd37444fa6937ae99361014, type: 3}
      propertyPath: m_LocalEulerAnglesHint.z
      value: 0
      objectReference: {fileID: 0}
    - target: {fileID: 2300000, guid: bef96b6e1cd37444fa6937ae99361014, type: 3}
      propertyPath: m_Materials.Array.data[0]
      value: 
      objectReference: {fileID: 2100000, guid: 40b5b1cfe73d4444eb7e750bd8e3f90a, type: 2}
    m_RemovedComponents: []
  m_SourcePrefab: {fileID: 100100000, guid: bef96b6e1cd37444fa6937ae99361014, type: 3}
--- !u!1 &963194225
GameObject:
  m_ObjectHideFlags: 0
  m_CorrespondingSourceObject: {fileID: 0}
  m_PrefabInstance: {fileID: 0}
  m_PrefabAsset: {fileID: 0}
  serializedVersion: 6
  m_Component:
  - component: {fileID: 963194228}
  - component: {fileID: 963194227}
  - component: {fileID: 963194226}
  m_Layer: 0
  m_Name: Main Camera
  m_TagString: MainCamera
  m_Icon: {fileID: 0}
  m_NavMeshLayer: 0
  m_StaticEditorFlags: 0
  m_IsActive: 1
--- !u!81 &963194226
AudioListener:
  m_ObjectHideFlags: 0
  m_CorrespondingSourceObject: {fileID: 0}
  m_PrefabInstance: {fileID: 0}
  m_PrefabAsset: {fileID: 0}
  m_GameObject: {fileID: 963194225}
  m_Enabled: 1
--- !u!20 &963194227
Camera:
  m_ObjectHideFlags: 0
  m_CorrespondingSourceObject: {fileID: 0}
  m_PrefabInstance: {fileID: 0}
  m_PrefabAsset: {fileID: 0}
  m_GameObject: {fileID: 963194225}
  m_Enabled: 1
  serializedVersion: 2
  m_ClearFlags: 1
  m_BackGroundColor: {r: 0.19215687, g: 0.3019608, b: 0.4745098, a: 0}
  m_projectionMatrixMode: 1
  m_GateFitMode: 2
  m_FOVAxisMode: 0
  m_SensorSize: {x: 36, y: 24}
  m_LensShift: {x: 0, y: 0}
  m_FocalLength: 50
  m_NormalizedViewPortRect:
    serializedVersion: 2
    x: 0
    y: 0
    width: 1
    height: 1
  near clip plane: 0.3
  far clip plane: 1000
  field of view: 60
  orthographic: 0
  orthographic size: 5
  m_Depth: -1
  m_CullingMask:
    serializedVersion: 2
    m_Bits: 4294967295
  m_RenderingPath: -1
  m_TargetTexture: {fileID: 0}
  m_TargetDisplay: 0
  m_TargetEye: 3
  m_HDR: 1
  m_AllowMSAA: 1
  m_AllowDynamicResolution: 0
  m_ForceIntoRT: 0
  m_OcclusionCulling: 1
  m_StereoConvergence: 10
  m_StereoSeparation: 0.022
--- !u!4 &963194228
Transform:
  m_ObjectHideFlags: 0
  m_CorrespondingSourceObject: {fileID: 0}
  m_PrefabInstance: {fileID: 0}
  m_PrefabAsset: {fileID: 0}
  m_GameObject: {fileID: 963194225}
  m_LocalRotation: {x: -0, y: -0.7778485, z: -0, w: 0.628452}
  m_LocalPosition: {x: 24.5, y: 3.29, z: 17.94}
  m_LocalScale: {x: 1, y: 1, z: 1}
  m_Children: []
  m_Father: {fileID: 0}
  m_RootOrder: 0
  m_LocalEulerAnglesHint: {x: 0, y: -102.128, z: 0}
--- !u!1 &1198604112 stripped
GameObject:
  m_CorrespondingSourceObject: {fileID: 1808265353395088, guid: 296b6c6ad62626c48aef7fa6c5e2a9a8, type: 3}
  m_PrefabInstance: {fileID: 1584689580}
  m_PrefabAsset: {fileID: 0}
--- !u!114 &1198604113
MonoBehaviour:
  m_ObjectHideFlags: 0
  m_CorrespondingSourceObject: {fileID: 0}
  m_PrefabInstance: {fileID: 0}
  m_PrefabAsset: {fileID: 0}
  m_GameObject: {fileID: 1198604112}
  m_Enabled: 1
  m_EditorHideFlags: 0
  m_Script: {fileID: 11500000, guid: efb64caef0a034b41ad9bc4d8891a19f, type: 3}
  m_Name: 
  m_EditorClassIdentifier: 
--- !u!54 &1198604117
Rigidbody:
  m_ObjectHideFlags: 0
  m_CorrespondingSourceObject: {fileID: 0}
  m_PrefabInstance: {fileID: 0}
  m_PrefabAsset: {fileID: 0}
  m_GameObject: {fileID: 1198604112}
  serializedVersion: 2
  m_Mass: 0.01
  m_Drag: 0
  m_AngularDrag: 0.05
  m_UseGravity: 1
  m_IsKinematic: 0
  m_Interpolate: 0
  m_Constraints: 0
  m_CollisionDetection: 0
--- !u!1 &1383194376 stripped
GameObject:
  m_CorrespondingSourceObject: {fileID: 100000, guid: bef96b6e1cd37444fa6937ae99361014, type: 3}
  m_PrefabInstance: {fileID: 889408500}
  m_PrefabAsset: {fileID: 0}
--- !u!65 &1383194380
BoxCollider:
  m_ObjectHideFlags: 0
  m_CorrespondingSourceObject: {fileID: 0}
  m_PrefabInstance: {fileID: 0}
  m_PrefabAsset: {fileID: 0}
  m_GameObject: {fileID: 1383194376}
  m_Material: {fileID: 0}
  m_IsTrigger: 0
  m_Enabled: 1
  serializedVersion: 2
  m_Size: {x: 1, y: 0.099999994, z: 1}
  m_Center: {x: 0.5, y: -0.049999997, z: 0.5}
--- !u!1 &1561940856
GameObject:
  m_ObjectHideFlags: 0
  m_CorrespondingSourceObject: {fileID: 0}
  m_PrefabInstance: {fileID: 0}
  m_PrefabAsset: {fileID: 0}
  serializedVersion: 6
  m_Component:
  - component: {fileID: 1561940858}
  - component: {fileID: 1561940857}
  m_Layer: 0
  m_Name: GameObject
  m_TagString: DeathTrigger
  m_Icon: {fileID: 0}
  m_NavMeshLayer: 0
  m_StaticEditorFlags: 0
  m_IsActive: 1
--- !u!65 &1561940857
BoxCollider:
  m_ObjectHideFlags: 0
  m_CorrespondingSourceObject: {fileID: 0}
  m_PrefabInstance: {fileID: 0}
  m_PrefabAsset: {fileID: 0}
  m_GameObject: {fileID: 1561940856}
  m_Material: {fileID: 0}
  m_IsTrigger: 1
  m_Enabled: 1
  serializedVersion: 2
  m_Size: {x: 1, y: 1, z: 1}
  m_Center: {x: 0, y: 0, z: 0}
--- !u!4 &1561940858
Transform:
  m_ObjectHideFlags: 0
  m_CorrespondingSourceObject: {fileID: 0}
  m_PrefabInstance: {fileID: 0}
  m_PrefabAsset: {fileID: 0}
  m_GameObject: {fileID: 1561940856}
  m_LocalRotation: {x: 0, y: 0, z: 0, w: 1}
  m_LocalPosition: {x: 9.09, y: -4.74, z: 7.04}
  m_LocalScale: {x: 30, y: 1, z: 20}
  m_Children: []
  m_Father: {fileID: 0}
  m_RootOrder: 8
  m_LocalEulerAnglesHint: {x: 0, y: 0, z: 0}
--- !u!1001 &1584689580
PrefabInstance:
  m_ObjectHideFlags: 0
  serializedVersion: 2
  m_Modification:
    m_TransformParent: {fileID: 0}
    m_Modifications:
    - target: {fileID: 1808265353395088, guid: 296b6c6ad62626c48aef7fa6c5e2a9a8, type: 3}
      propertyPath: m_Name
      value: SM_PolygonPrototype_Primitive_Sphere_01P
      objectReference: {fileID: 0}
    - target: {fileID: 4813550475596240, guid: 296b6c6ad62626c48aef7fa6c5e2a9a8, type: 3}
      propertyPath: m_RootOrder
      value: 2
      objectReference: {fileID: 0}
    - target: {fileID: 4813550475596240, guid: 296b6c6ad62626c48aef7fa6c5e2a9a8, type: 3}
      propertyPath: m_LocalPosition.x
      value: 18.33
      objectReference: {fileID: 0}
    - target: {fileID: 4813550475596240, guid: 296b6c6ad62626c48aef7fa6c5e2a9a8, type: 3}
      propertyPath: m_LocalPosition.y
      value: 3.41
      objectReference: {fileID: 0}
    - target: {fileID: 4813550475596240, guid: 296b6c6ad62626c48aef7fa6c5e2a9a8, type: 3}
      propertyPath: m_LocalPosition.z
      value: 10.76
      objectReference: {fileID: 0}
    - target: {fileID: 4813550475596240, guid: 296b6c6ad62626c48aef7fa6c5e2a9a8, type: 3}
      propertyPath: m_LocalRotation.w
      value: 1
      objectReference: {fileID: 0}
    - target: {fileID: 4813550475596240, guid: 296b6c6ad62626c48aef7fa6c5e2a9a8, type: 3}
      propertyPath: m_LocalRotation.x
      value: 0
      objectReference: {fileID: 0}
    - target: {fileID: 4813550475596240, guid: 296b6c6ad62626c48aef7fa6c5e2a9a8, type: 3}
      propertyPath: m_LocalRotation.y
      value: -0
      objectReference: {fileID: 0}
    - target: {fileID: 4813550475596240, guid: 296b6c6ad62626c48aef7fa6c5e2a9a8, type: 3}
      propertyPath: m_LocalRotation.z
      value: -0
      objectReference: {fileID: 0}
    - target: {fileID: 4813550475596240, guid: 296b6c6ad62626c48aef7fa6c5e2a9a8, type: 3}
      propertyPath: m_LocalEulerAnglesHint.x
      value: 0
      objectReference: {fileID: 0}
    - target: {fileID: 4813550475596240, guid: 296b6c6ad62626c48aef7fa6c5e2a9a8, type: 3}
      propertyPath: m_LocalEulerAnglesHint.y
      value: 0
      objectReference: {fileID: 0}
    - target: {fileID: 4813550475596240, guid: 296b6c6ad62626c48aef7fa6c5e2a9a8, type: 3}
      propertyPath: m_LocalEulerAnglesHint.z
      value: 0
      objectReference: {fileID: 0}
    - target: {fileID: 23216627478296634, guid: 296b6c6ad62626c48aef7fa6c5e2a9a8, type: 3}
      propertyPath: m_Materials.Array.data[0]
      value: 
      objectReference: {fileID: 2100000, guid: 940d4c7d3d8f0ff4aab297e184fe9ffd, type: 2}
    m_RemovedComponents: []
  m_SourcePrefab: {fileID: 100100000, guid: 296b6c6ad62626c48aef7fa6c5e2a9a8, type: 3}
--- !u!1001 &1820001527
PrefabInstance:
  m_ObjectHideFlags: 0
  serializedVersion: 2
  m_Modification:
    m_TransformParent: {fileID: 0}
    m_Modifications:
    - target: {fileID: 1978775886026106, guid: bbc12ae2f967ec04e8c3c39eeb92733b, type: 3}
      propertyPath: m_Name
      value: SM_PolygonPrototype_Buildings_Block_1x1_01P
      objectReference: {fileID: 0}
    - target: {fileID: 4962039562683002, guid: bbc12ae2f967ec04e8c3c39eeb92733b, type: 3}
      propertyPath: m_RootOrder
      value: 3
      objectReference: {fileID: 0}
    - target: {fileID: 4962039562683002, guid: bbc12ae2f967ec04e8c3c39eeb92733b, type: 3}
      propertyPath: m_LocalScale.x
      value: 2
      objectReference: {fileID: 0}
    - target: {fileID: 4962039562683002, guid: bbc12ae2f967ec04e8c3c39eeb92733b, type: 3}
      propertyPath: m_LocalScale.y
      value: 2
      objectReference: {fileID: 0}
    - target: {fileID: 4962039562683002, guid: bbc12ae2f967ec04e8c3c39eeb92733b, type: 3}
      propertyPath: m_LocalScale.z
      value: 2
      objectReference: {fileID: 0}
    - target: {fileID: 4962039562683002, guid: bbc12ae2f967ec04e8c3c39eeb92733b, type: 3}
      propertyPath: m_LocalPosition.x
      value: 16.940956
      objectReference: {fileID: 0}
    - target: {fileID: 4962039562683002, guid: bbc12ae2f967ec04e8c3c39eeb92733b, type: 3}
      propertyPath: m_LocalPosition.y
      value: 0
      objectReference: {fileID: 0}
    - target: {fileID: 4962039562683002, guid: bbc12ae2f967ec04e8c3c39eeb92733b, type: 3}
      propertyPath: m_LocalPosition.z
      value: 9.843482
      objectReference: {fileID: 0}
    - target: {fileID: 4962039562683002, guid: bbc12ae2f967ec04e8c3c39eeb92733b, type: 3}
      propertyPath: m_LocalRotation.w
      value: 1
      objectReference: {fileID: 0}
    - target: {fileID: 4962039562683002, guid: bbc12ae2f967ec04e8c3c39eeb92733b, type: 3}
      propertyPath: m_LocalRotation.x
      value: 0
      objectReference: {fileID: 0}
    - target: {fileID: 4962039562683002, guid: bbc12ae2f967ec04e8c3c39eeb92733b, type: 3}
      propertyPath: m_LocalRotation.y
      value: -0
      objectReference: {fileID: 0}
    - target: {fileID: 4962039562683002, guid: bbc12ae2f967ec04e8c3c39eeb92733b, type: 3}
      propertyPath: m_LocalRotation.z
      value: -0
      objectReference: {fileID: 0}
    - target: {fileID: 4962039562683002, guid: bbc12ae2f967ec04e8c3c39eeb92733b, type: 3}
      propertyPath: m_LocalEulerAnglesHint.x
      value: 0
      objectReference: {fileID: 0}
    - target: {fileID: 4962039562683002, guid: bbc12ae2f967ec04e8c3c39eeb92733b, type: 3}
      propertyPath: m_LocalEulerAnglesHint.y
      value: 0
      objectReference: {fileID: 0}
    - target: {fileID: 4962039562683002, guid: bbc12ae2f967ec04e8c3c39eeb92733b, type: 3}
      propertyPath: m_LocalEulerAnglesHint.z
      value: 0
      objectReference: {fileID: 0}
    m_RemovedComponents: []
  m_SourcePrefab: {fileID: 100100000, guid: bbc12ae2f967ec04e8c3c39eeb92733b, type: 3}
--- !u!1 &1982117566 stripped
GameObject:
  m_CorrespondingSourceObject: {fileID: 2811147065619862206, guid: 0b0ce9ae0445d8e44a48291497ed7cab, type: 3}
  m_PrefabInstance: {fileID: 2812098274312913505}
  m_PrefabAsset: {fileID: 0}
--- !u!114 &1982117567
MonoBehaviour:
  m_ObjectHideFlags: 0
  m_CorrespondingSourceObject: {fileID: 0}
  m_PrefabInstance: {fileID: 0}
  m_PrefabAsset: {fileID: 0}
  m_GameObject: {fileID: 1982117566}
  m_Enabled: 1
  m_EditorHideFlags: 0
  m_Script: {fileID: 11500000, guid: 80a5fe608e5e7d54db8b03472e4d870d, type: 3}
  m_Name: 
  m_EditorClassIdentifier: 
--- !u!95 &1982117572
Animator:
  serializedVersion: 3
  m_ObjectHideFlags: 0
  m_CorrespondingSourceObject: {fileID: 0}
  m_PrefabInstance: {fileID: 0}
  m_PrefabAsset: {fileID: 0}
  m_GameObject: {fileID: 1982117566}
  m_Enabled: 1
  m_Avatar: {fileID: 0}
  m_Controller: {fileID: 9100000, guid: 7285558bfafc34c4fa49ea51fd7133ad, type: 2}
  m_CullingMode: 0
  m_UpdateMode: 0
  m_ApplyRootMotion: 0
  m_LinearVelocityBlending: 0
  m_WarningMessage: 
  m_HasTransformHierarchy: 1
  m_AllowConstantClipSamplingOptimization: 1
  m_KeepAnimatorControllerStateOnDisable: 0
--- !u!1001 &2071116357
PrefabInstance:
  m_ObjectHideFlags: 0
  serializedVersion: 2
  m_Modification:
    m_TransformParent: {fileID: 0}
    m_Modifications:
    - target: {fileID: 100000, guid: b45e496b386039141af15f243dd3ac22, type: 3}
      propertyPath: m_Name
      value: SM_Buildings_Column_2x3_01
      objectReference: {fileID: 0}
    - target: {fileID: 100000, guid: b45e496b386039141af15f243dd3ac22, type: 3}
      propertyPath: m_IsActive
      value: 0
      objectReference: {fileID: 0}
    - target: {fileID: 400000, guid: b45e496b386039141af15f243dd3ac22, type: 3}
      propertyPath: m_RootOrder
      value: 5
      objectReference: {fileID: 0}
    - target: {fileID: 400000, guid: b45e496b386039141af15f243dd3ac22, type: 3}
      propertyPath: m_LocalScale.x
      value: 7.308855
      objectReference: {fileID: 0}
    - target: {fileID: 400000, guid: b45e496b386039141af15f243dd3ac22, type: 3}
      propertyPath: m_LocalPosition.x
      value: 16.46
      objectReference: {fileID: 0}
    - target: {fileID: 400000, guid: b45e496b386039141af15f243dd3ac22, type: 3}
      propertyPath: m_LocalPosition.y
      value: 0.01
      objectReference: {fileID: 0}
    - target: {fileID: 400000, guid: b45e496b386039141af15f243dd3ac22, type: 3}
      propertyPath: m_LocalPosition.z
      value: 16.174599
      objectReference: {fileID: 0}
    - target: {fileID: 400000, guid: b45e496b386039141af15f243dd3ac22, type: 3}
      propertyPath: m_LocalRotation.w
      value: 1
      objectReference: {fileID: 0}
    - target: {fileID: 400000, guid: b45e496b386039141af15f243dd3ac22, type: 3}
      propertyPath: m_LocalRotation.x
      value: 0
      objectReference: {fileID: 0}
    - target: {fileID: 400000, guid: b45e496b386039141af15f243dd3ac22, type: 3}
      propertyPath: m_LocalRotation.y
      value: -0
      objectReference: {fileID: 0}
    - target: {fileID: 400000, guid: b45e496b386039141af15f243dd3ac22, type: 3}
      propertyPath: m_LocalRotation.z
      value: -0
      objectReference: {fileID: 0}
    - target: {fileID: 400000, guid: b45e496b386039141af15f243dd3ac22, type: 3}
      propertyPath: m_LocalEulerAnglesHint.x
      value: 0
      objectReference: {fileID: 0}
    - target: {fileID: 400000, guid: b45e496b386039141af15f243dd3ac22, type: 3}
      propertyPath: m_LocalEulerAnglesHint.y
      value: 0
      objectReference: {fileID: 0}
    - target: {fileID: 400000, guid: b45e496b386039141af15f243dd3ac22, type: 3}
      propertyPath: m_LocalEulerAnglesHint.z
      value: 0
      objectReference: {fileID: 0}
    - target: {fileID: 2300000, guid: b45e496b386039141af15f243dd3ac22, type: 3}
      propertyPath: m_Materials.Array.data[0]
      value: 
      objectReference: {fileID: 2100000, guid: dce3a789f595f224a85f5cf4f2e6667d, type: 2}
    m_RemovedComponents: []
  m_SourcePrefab: {fileID: 100100000, guid: b45e496b386039141af15f243dd3ac22, type: 3}
--- !u!1001 &2812098274312913505
PrefabInstance:
  m_ObjectHideFlags: 0
  serializedVersion: 2
  m_Modification:
    m_TransformParent: {fileID: 0}
    m_Modifications:
    - target: {fileID: 2812098274607171726, guid: 0b0ce9ae0445d8e44a48291497ed7cab, type: 3}
      propertyPath: m_RootOrder
      value: 1
      objectReference: {fileID: 0}
    - target: {fileID: 2812098274607171726, guid: 0b0ce9ae0445d8e44a48291497ed7cab, type: 3}
      propertyPath: m_LocalPosition.x
      value: 17.9
      objectReference: {fileID: 0}
    - target: {fileID: 2812098274607171726, guid: 0b0ce9ae0445d8e44a48291497ed7cab, type: 3}
      propertyPath: m_LocalPosition.y
      value: 1.403
      objectReference: {fileID: 0}
    - target: {fileID: 2812098274607171726, guid: 0b0ce9ae0445d8e44a48291497ed7cab, type: 3}
      propertyPath: m_LocalPosition.z
      value: 13.91
      objectReference: {fileID: 0}
    - target: {fileID: 2812098274607171726, guid: 0b0ce9ae0445d8e44a48291497ed7cab, type: 3}
      propertyPath: m_LocalRotation.w
      value: 1
      objectReference: {fileID: 0}
    - target: {fileID: 2812098274607171726, guid: 0b0ce9ae0445d8e44a48291497ed7cab, type: 3}
      propertyPath: m_LocalRotation.x
      value: -0
      objectReference: {fileID: 0}
    - target: {fileID: 2812098274607171726, guid: 0b0ce9ae0445d8e44a48291497ed7cab, type: 3}
      propertyPath: m_LocalRotation.y
      value: -0
      objectReference: {fileID: 0}
    - target: {fileID: 2812098274607171726, guid: 0b0ce9ae0445d8e44a48291497ed7cab, type: 3}
      propertyPath: m_LocalRotation.z
      value: -0
      objectReference: {fileID: 0}
    - target: {fileID: 2812098274607171726, guid: 0b0ce9ae0445d8e44a48291497ed7cab, type: 3}
      propertyPath: m_LocalEulerAnglesHint.x
      value: 0
      objectReference: {fileID: 0}
    - target: {fileID: 2812098274607171726, guid: 0b0ce9ae0445d8e44a48291497ed7cab, type: 3}
      propertyPath: m_LocalEulerAnglesHint.y
      value: 0
      objectReference: {fileID: 0}
    - target: {fileID: 2812098274607171726, guid: 0b0ce9ae0445d8e44a48291497ed7cab, type: 3}
      propertyPath: m_LocalEulerAnglesHint.z
      value: 0
      objectReference: {fileID: 0}
    - target: {fileID: 2812098274607171727, guid: 0b0ce9ae0445d8e44a48291497ed7cab, type: 3}
      propertyPath: m_Name
      value: Coin
      objectReference: {fileID: 0}
    - target: {fileID: 2816969110431279418, guid: 0b0ce9ae0445d8e44a48291497ed7cab, type: 3}
      propertyPath: m_LocalScale.x
      value: 1
      objectReference: {fileID: 0}
    - target: {fileID: 2816969110431279418, guid: 0b0ce9ae0445d8e44a48291497ed7cab, type: 3}
      propertyPath: m_LocalScale.y
      value: 1
      objectReference: {fileID: 0}
    - target: {fileID: 2816969110431279418, guid: 0b0ce9ae0445d8e44a48291497ed7cab, type: 3}
      propertyPath: m_LocalScale.z
      value: 1
      objectReference: {fileID: 0}
    - target: {fileID: 2874719280367938568, guid: 0b0ce9ae0445d8e44a48291497ed7cab, type: 3}
      propertyPath: m_IsTrigger
      value: 1
      objectReference: {fileID: 0}
    m_RemovedComponents:
    - {fileID: 2812098274680222942, guid: 0b0ce9ae0445d8e44a48291497ed7cab, type: 3}
  m_SourcePrefab: {fileID: 100100000, guid: 0b0ce9ae0445d8e44a48291497ed7cab, type: 3}
